{
    "openapi": "3.0.0",
    "info": {
        "title": "DrinkApp APIs",
        "version": "1.0"
    },
    "paths": {
        "/api/v1/login": {
            "post": {
                "tags": [
                    "Auth"
                ],
                "summary": "Login and get access token",
                "requestBody": {
                    "content": {
                        "application/x-www-form-urlencoded": {
                            "schema": {
                                "properties": {
                                    "email": {
                                        "type": "string"
                                    },
                                    "password": {
                                        "type": "string"
                                    }
                                },
                                "type": "object",
                                "example": {
                                    "email": "abc@drink.com",
                                    "password": "Password123"
                                }
                            }
                        }
                    }
                },
                "responses": {
                    "200": {
                        "description": "successful operation"
                    },
                    "400": {
                        "description": "Invalid username/password supplied"
                    }
                }
            }
        },
        "/api/v1/register": {
            "post": {
                "tags": [
                    "Auth"
                ],
                "summary": "Register",
                "requestBody": {
                    "content": {
                        "application/x-www-form-urlencoded": {
                            "schema": {
                                "properties": {
                                    "name": {
                                        "type": "string"
                                    },
                                    "email": {
                                        "type": "string"
                                    },
                                    "yob": {
                                        "type": "integer"
                                    },
                                    "gender": {
                                        "description": "male/female",
                                        "type": "string"
                                    },
                                    "password": {
                                        "type": "string"
                                    },
                                    "password_confirmation": {
                                        "type": "string"
                                    }
                                },
                                "type": "object"
                            }
                        }
                    }
                },
                "responses": {
                    "200": {
                        "description": "{'result': 'success'}"
                    },
                    "400": {
                        "description": "{'result': 'error', 'messages': [...]}"
                    }
                }
            }
        },
        "/api/v1/login_facebook": {
            "post": {
                "tags": [
                    "Auth"
                ],
                "summary": "Login",
                "requestBody": {
                    "content": {
                        "application/x-www-form-urlencoded": {
                            "schema": {
                                "properties": {
                                    "api_token": {
                                        "type": "string"
                                    }
                                },
                                "type": "object"
                            }
                        }
                    }
                },
                "responses": {
                    "200": {
                        "description": "{'result': 'success'}"
                    },
                    "400": {
                        "description": "{'result': 'error', 'messages': [...]}"
                    }
                }
            }
        },
        "/api/v1/login_google": {
            "post": {
                "tags": [
                    "Auth"
                ],
                "summary": "Register",
                "requestBody": {
                    "content": {
                        "application/x-www-form-urlencoded": {
                            "schema": {
                                "properties": {
                                    "name": {
                                        "type": "string"
                                    },
                                    "email": {
                                        "type": "string"
                                    },
                                    "google_id": {
                                        "type": "string"
                                    },
                                    "secret": {
                                        "type": "string"
                                    }
                                },
                                "type": "object"
                            }
                        }
                    }
                },
                "responses": {
                    "200": {
                        "description": "{'result': 'success'}"
                    },
                    "400": {
                        "description": "{'result': 'error', 'messages': [...]}"
                    }
                }
            }
        },
        "/api/v1/login_apple": {
            "post": {
                "tags": [
                    "Auth"
                ],
                "summary": "Register",
                "requestBody": {
                    "content": {
                        "application/x-www-form-urlencoded": {
                            "schema": {
                                "properties": {
                                    "name": {
                                        "type": "string"
                                    },
                                    "email": {
                                        "type": "string"
                                    },
                                    "apple_id": {
                                        "type": "string"
                                    },
                                    "secret": {
                                        "type": "string"
                                    }
                                },
                                "type": "object"
                            }
                        }
                    }
                },
                "responses": {
                    "200": {
                        "description": "{'result': 'success'}"
                    },
                    "400": {
                        "description": "{'result': 'error', 'messages': [...]}"
                    }
                }
            }
        },
        "/api/v1/forgot-password": {
            "post": {
                "tags": [
                    "Auth"
                ],
                "summary": "Forgot password - send reset password email",
                "requestBody": {
                    "content": {
                        "application/x-www-form-urlencoded": {
                            "schema": {
                                "properties": {
                                    "email": {
                                        "type": "string"
                                    }
                                },
                                "type": "object"
                            }
                        }
                    }
                },
                "responses": {
                    "200": {
                        "description": "successful operation"
                    },
                    "400": {
                        "description": ""
                    }
                }
            }
        },
        "/api/v1/password": {
            "post": {
                "tags": [
                    "Auth"
                ],
                "summary": "Change password",
                "parameters": [
                    {
                        "name": "Accept",
                        "in": "header",
                        "description": "application/json",
                        "required": true,
                        "schema": {
                            "type": "string"
                        }
                    },
                    {
                        "name": "Authorization",
                        "in": "header",
                        "description": "Bearer {token}",
                        "required": true,
                        "schema": {
                            "type": "string"
                        }
                    }
                ],
                "requestBody": {
                    "content": {
                        "application/x-www-form-urlencoded": {
                            "schema": {
                                "properties": {
                                    "password": {
                                        "type": "string"
                                    },
                                    "password_confirmation": {
                                        "type": "string"
                                    }
                                },
                                "type": "object"
                            }
                        }
                    }
                },
                "responses": {
                    "200": {
                        "description": "{'result': 'success'}"
                    },
                    "400": {
                        "description": "{'result': 'error', 'messages': [...]}"
                    }
                }
            }
        },
        "/api/v1/profile": {
            "post": {
                "tags": [
                    "Auth"
                ],
                "summary": "Change profile information",
                "parameters": [
                    {
                        "name": "Accept",
                        "in": "header",
                        "description": "application/json",
                        "required": true,
                        "schema": {
                            "type": "string"
                        }
                    },
                    {
                        "name": "Authorization",
                        "in": "header",
                        "description": "Bearer {token}",
                        "required": true,
                        "schema": {
                            "type": "string"
                        }
                    }
                ],
                "requestBody": {
                    "content": {
                        "application/x-www-form-urlencoded": {
                            "schema": {
                                "properties": {
                                    "name": {
                                        "type": "string"
                                    },
                                    "email": {
                                        "type": "string"
                                    }
                                },
                                "type": "object"
                            }
                        }
                    }
                },
                "responses": {
                    "200": {
                        "description": "{'result': 'success'}"
                    },
                    "400": {
                        "description": "{'result': 'error', 'messages': [...]}"
                    }
                }
            }
        },
        "/api/v1/items": {
            "post": {
                "tags": [
                    "Location"
                ],
                "summary": "Get Items prices",
                "operationId": "App\\Http\\Controllers\\API\\v1\\ItemController::index",
                "requestBody": {
                    "content": {
                        "application/x-www-form-urlencoded": {
                            "schema": {
                                "properties": {
                                    "location_id": {
                                        "description": "",
                                        "type": "integer"
                                    },
                                    "items": {
                                        "description": "[1, 2, 3, ...]",
                                        "type": "string"
                                    }
                                },
                                "type": "object"
                            }
                        }
                    }
                },
                "responses": {
                    "200": {
                        "description": "{data: []}"
                    }
                }
            }
        },
        "/api/v1/location": {
            "get": {
                "tags": [
                    "Location"
                ],
                "summary": "Get all locations",
                "operationId": "App\\Http\\Controllers\\API\\v1\\LocationController::index",
                "parameters": [
                    {
                        "name": "Accept",
                        "in": "header",
                        "description": "application/json",
                        "required": true,
                        "schema": {
                            "type": "string"
                        }
                    },
                    {
                        "name": "Authorization",
                        "in": "header",
                        "description": "Bearer {token}",
                        "required": true,
                        "schema": {
                            "type": "string"
                        }
                    },
                    {
                        "name": "keyword",
                        "in": "query",
                        "description": "keyword to search name or address",
                        "required": true,
                        "schema": {
                            "type": "string"
                        }
                    }
                ],
                "responses": {
                    "200": {
                        "description": "{data: [], meta: {pagination: {total: 4,count: 4,per_page: 10,current_page: 1,total_pages: 1,links: []}}}"
                    }
                }
            }
        },
        "/api/v1/location/types": {
            "get": {
                "tags": [
                    "Location"
                ],
                "summary": "Get all locations types",
                "operationId": "App\\Http\\Controllers\\API\\v1\\LocationController::types",
                "parameters": [
                    {
                        "name": "Accept",
                        "in": "header",
                        "description": "application/json",
                        "schema": {
                            "type": "string"
                        }
                    },
                    {
                        "name": "Authorization",
                        "in": "header",
                        "description": "Bearer {token}",
                        "schema": {
                            "type": "string"
                        }
                    },
                    {
                        "name": "lat",
                        "in": "query",
                        "description": "latitude",
                        "schema": {
                            "type": "string"
                        }
                    },
                    {
                        "name": "lng",
                        "in": "query",
                        "description": "longitude",
                        "schema": {
                            "type": "string"
                        }
                    }
                ],
                "responses": {
                    "200": {
                        "description": "{data: [], meta: {pagination: {total: 4,count: 4,per_page: 10,current_page: 1,total_pages: 1,links: []}}}"
                    }
                }
            }
        },
        "/api/v1/location/closest": {
            "get": {
                "tags": [
                    "Location"
                ],
                "summary": "Get the closest 5 locations",
                "operationId": "App\\Http\\Controllers\\API\\v1\\LocationController::closest",
                "parameters": [
                    {
                        "name": "Accept",
                        "in": "header",
                        "description": "application/json",
                        "required": true,
                        "schema": {
                            "type": "string"
                        }
                    },
                    {
                        "name": "Authorization",
                        "in": "header",
                        "description": "Bearer {token}",
                        "required": true,
                        "schema": {
                            "type": "string"
                        }
                    },
                    {
                        "name": "latitude",
                        "in": "query",
                        "description": "Latitude",
                        "required": true,
                        "schema": {
                            "type": "string"
                        }
                    },
                    {
                        "name": "longitude",
                        "in": "query",
                        "description": "Longitude",
                        "required": true,
                        "schema": {
                            "type": "string"
                        }
                    }
                ],
                "responses": {
                    "200": {
                        "description": "{data: [], meta: {pagination: {total: 4,count: 4,per_page: 10,current_page: 1,total_pages: 1,links: []}}}"
                    }
                }
            }
        },
        "/api/v1/location/{id}": {
            "get": {
                "tags": [
                    "Location"
                ],
                "summary": "Get a location data",
                "operationId": "App\\Http\\Controllers\\API\\v1\\LocationController::get",
                "parameters": [
                    {
                        "name": "Accept",
                        "in": "header",
                        "description": "application/json",
                        "required": true,
                        "schema": {
                            "type": "string"
                        }
                    },
                    {
                        "name": "Authorization",
                        "in": "header",
                        "description": "Bearer {token}",
                        "required": true,
                        "schema": {
                            "type": "string"
                        }
                    }
                ],
                "responses": {
                    "200": {
                        "description": "{data:{id:3,...}}"
                    }
                }
            }
        },
        "/api/v1/location/{id}/delivery": {
            "get": {
                "tags": [
                    "Location"
                ],
                "summary": "Get all delivery status (home, collection, to table) of a location",
                "operationId": "App\\Http\\Controllers\\API\\v1\\LocationController::delivery",
                "parameters": [
                    {
                        "name": "Accept",
                        "in": "header",
                        "description": "application/json",
                        "required": true,
                        "schema": {
                            "type": "string"
                        }
                    }
                ],
                "responses": {
                    "200": {
                        "description": ""
                    }
                }
            }
        },
        "/api/v1/location/{id}/discount": {
            "post": {
                "tags": [
                    "Location"
                ],
                "summary": "Set user discount on device",
                "operationId": "App\\Http\\Controllers\\API\\v1\\LocationController::discount",
                "parameters": [
                    {
                        "name": "Accept",
                        "in": "header",
                        "description": "application/json",
                        "required": true,
                        "schema": {
                            "type": "string"
                        }
                    },
                    {
                        "name": "Authorization",
                        "in": "header",
                        "description": "Bearer {token}",
                        "required": true,
                        "schema": {
                            "type": "string"
                        }
                    }
                ],
                "requestBody": {
                    "content": {
                        "application/x-www-form-urlencoded": {
                            "schema": {
                                "properties": {
                                    "code": {
                                        "type": "float"
                                    },
                                    "device_id": {
                                        "type": "string"
                                    }
                                },
                                "type": "object"
                            }
                        }
                    }
                },
                "responses": {
                    "200": {
                        "description": ""
                    }
                }
            }
        },
        "/api/v1/location/{id}/remove-discount": {
            "post": {
                "tags": [
                    "Location"
                ],
                "summary": "Remove user discount from device",
                "operationId": "App\\Http\\Controllers\\API\\v1\\LocationController::remove_discount",
                "parameters": [
                    {
                        "name": "Accept",
                        "in": "header",
                        "description": "application/json",
                        "required": true,
                        "schema": {
                            "type": "string"
                        }
                    },
                    {
                        "name": "Authorization",
                        "in": "header",
                        "description": "Bearer {token}",
                        "required": true,
                        "schema": {
                            "type": "string"
                        }
                    }
                ],
                "requestBody": {
                    "content": {
                        "application/x-www-form-urlencoded": {
                            "schema": {
                                "properties": {
                                    "code": {
                                        "type": "float"
                                    },
                                    "device_id": {
                                        "type": "string"
                                    }
                                },
                                "type": "object"
                            }
                        }
                    }
                },
                "responses": {
                    "200": {
                        "description": ""
                    }
                }
            }
        },
        "/api/v1/location/{id}/delivery-price": {
            "post": {
                "tags": [
                    "Location"
                ],
                "summary": "Get delivery price for user location",
                "operationId": "App\\Http\\Controllers\\API\\v1\\LocationController::delivery_price",
                "parameters": [
                    {
                        "name": "Accept",
                        "in": "header",
                        "description": "application/json",
                        "required": true,
                        "schema": {
                            "type": "string"
                        }
                    }
                ],
                "requestBody": {
                    "content": {
                        "application/x-www-form-urlencoded": {
                            "schema": {
                                "properties": {
                                    "lat": {
                                        "type": "float"
                                    },
                                    "lng": {
                                        "type": "float"
                                    }
                                },
                                "type": "object"
                            }
                        }
                    }
                },
                "responses": {
                    "200": {
                        "description": ""
                    }
                }
            }
        },
        "/api/v1/location/{id}/categories": {
            "get": {
                "tags": [
                    "Location"
                ],
                "summary": "Get all categories of a location",
                "operationId": "App\\Http\\Controllers\\API\\v1\\LocationController::categories",
                "parameters": [
                    {
                        "name": "Accept",
                        "in": "header",
                        "description": "application/json",
                        "required": true,
                        "schema": {
                            "type": "string"
                        }
                    },
                    {
                        "name": "Authorization",
                        "in": "header",
                        "description": "Bearer {token}",
                        "required": true,
                        "schema": {
                            "type": "string"
                        }
                    }
                ],
                "responses": {
                    "200": {
                        "description": ""
                    }
                }
            }
        },
        "/api/v1/location/rating/{id}": {
            "post": {
                "tags": [
                    "Location"
                ],
                "summary": "Set location rating",
                "operationId": "App\\Http\\Controllers\\API\\v1\\LocationController::addrating",
                "parameters": [
                    {
                        "name": "Accept",
                        "in": "header",
                        "description": "application/json",
                        "required": true,
                        "schema": {
                            "type": "string"
                        }
                    },
                    {
                        "name": "Authorization",
                        "in": "header",
                        "description": "Bearer {token}",
                        "required": true,
                        "schema": {
                            "type": "string"
                        }
                    }
                ],
                "requestBody": {
                    "content": {
                        "application/x-www-form-urlencoded": {
                            "schema": {
                                "properties": {
                                    "rating": {
                                        "type": "integer"
                                    }
                                },
                                "type": "object"
                            }
                        }
                    }
                },
                "responses": {
                    "200": {
                        "description": "{rating:{id:3,...}}"
                    }
                }
            }
        },
        "/api/v1/location/{id}/categories/list": {
            "get": {
                "tags": [
                    "Location"
                ],
                "summary": "Get categories of a location",
                "operationId": "App\\Http\\Controllers\\API\\v1\\LocationController::categories_list",
                "parameters": [
                    {
                        "name": "Accept",
                        "in": "header",
                        "description": "application/json",
                        "required": true,
                        "schema": {
                            "type": "string"
                        }
                    },
                    {
                        "name": "Authorization",
                        "in": "header",
                        "description": "Bearer {token}",
                        "required": true,
                        "schema": {
                            "type": "string"
                        }
                    }
                ],
                "requestBody": {
                    "content": {
                        "application/x-www-form-urlencoded": {
                            "schema": {
                                "properties": {
                                    "type": {
                                        "type": "string"
                                    }
                                },
                                "type": "object"
                            }
                        }
                    }
                },
                "responses": {
                    "200": {
                        "description": ""
                    }
                }
            }
        },
        "/api/v1/location/{id}/categories/list-grouped": {
            "get": {
                "tags": [
                    "Location"
                ],
                "summary": "Get categories tree of a location",
                "operationId": "App\\Http\\Controllers\\API\\v1\\LocationController::categories_list_grouped",
                "parameters": [
                    {
                        "name": "Accept",
                        "in": "header",
                        "description": "application/json",
                        "required": true,
                        "schema": {
                            "type": "string"
                        }
                    },
                    {
                        "name": "Authorization",
                        "in": "header",
                        "description": "Bearer {token}",
                        "required": true,
                        "schema": {
                            "type": "string"
                        }
                    }
                ],
                "requestBody": {
                    "content": {
                        "application/x-www-form-urlencoded": {
                            "schema": {
                                "properties": {
                                    "type": {
                                        "type": "string"
                                    }
                                },
                                "type": "object"
                            }
                        }
                    }
                },
                "responses": {
                    "200": {
                        "description": ""
                    }
                }
            }
        },
        "/api/v1/location/{id}/location_category_items/{category_id}": {
            "get": {
                "tags": [
                    "Location"
                ],
                "summary": "Get all items of location category",
                "operationId": "App\\Http\\Controllers\\API\\v1\\LocationController::location_category_items",
                "parameters": [
                    {
                        "name": "Accept",
                        "in": "header",
                        "description": "application/json",
                        "required": true,
                        "schema": {
                            "type": "string"
                        }
                    },
                    {
                        "name": "Authorization",
                        "in": "header",
                        "description": "Bearer {token}",
                        "required": true,
                        "schema": {
                            "type": "string"
                        }
                    }
                ],
                "responses": {
                    "200": {
                        "description": ""
                    }
                }
            }
        },
        "/api/v1/order": {
            "get": {
                "tags": [
                    "Order"
                ],
                "summary": "Get all orders",
                "operationId": "App\\Http\\Controllers\\API\\v1\\OrderController::index",
                "parameters": [
                    {
                        "name": "Accept",
                        "in": "header",
                        "description": "application/json",
                        "required": true,
                        "schema": {
                            "type": "string"
                        }
                    },
                    {
                        "name": "Authorization",
                        "in": "header",
                        "description": "Bearer {token}",
                        "required": true,
                        "schema": {
                            "type": "string"
                        }
                    }
                ],
                "responses": {
                    "200": {
                        "description": "{data: [], meta: {pagination: {total: 4,count: 4,per_page: 10,current_page: 1,total_pages: 1,links: []}}}"
                    }
                }
            },
            "post": {
                "tags": [
                    "Order"
                ],
                "summary": "Submit new order",
                "operationId": "App\\Http\\Controllers\\API\\v1\\OrderController::store",
                "parameters": [
                    {
                        "name": "Accept",
                        "in": "header",
                        "description": "application/json",
                        "required": true,
                        "schema": {
                            "type": "string"
                        }
                    },
                    {
                        "name": "Authorization",
                        "in": "header",
                        "description": "Bearer {token}",
                        "required": true,
                        "schema": {
                            "type": "string"
                        }
                    }
                ],
                "requestBody": {
                    "content": {
                        "application/x-www-form-urlencoded": {
                            "schema": {
                                "properties": {
                                    "card_id": {
                                        "type": "string"
                                    },
                                    "location_id": {
                                        "type": "string"
                                    },
                                    "is_delivery": {
                                        "type": "boolean"
                                    },
                                    "table_number": {
                                        "type": "integer"
                                    },
                                    "grandtotal_price": {
                                        "type": "decimal"
                                    },
                                    "tips": {
                                        "type": "decimal"
                                    },
                                    "total_price": {
                                        "type": "decimal"
                                    },
                                    "total_fee": {
                                        "type": "decimal"
                                    },
                                    "description": {
                                        "type": "string"
                                    },
                                    "delivery_price": {
                                        "type": "decimal"
                                    },
                                    "items": {
                                        "type": "string"
                                    }
                                },
                                "type": "object"
                            }
                        }
                    }
                },
                "responses": {
                    "200": {
                        "description": "{data: []}"
                    }
                }
            }
        },
        "/api/v1/order/{id}": {
            "get": {
                "tags": [
                    "Order"
                ],
                "summary": "Get a order data",
                "operationId": "App\\Http\\Controllers\\API\\v1\\OrderController::get",
                "parameters": [
                    {
                        "name": "Accept",
                        "in": "header",
                        "description": "application/json",
                        "required": true,
                        "schema": {
                            "type": "string"
                        }
                    },
                    {
                        "name": "Authorization",
                        "in": "header",
                        "description": "Bearer {token}",
                        "required": true,
                        "schema": {
                            "type": "string"
                        }
                    }
                ],
                "responses": {
                    "200": {
                        "description": "{data:{id:3,...}}"
                    }
                }
            }
        },
        "/api/v1/order/last": {
            "get": {
                "tags": [
                    "Order"
                ],
                "summary": "Get last order data",
                "operationId": "App\\Http\\Controllers\\API\\v1\\OrderController::last",
                "parameters": [
                    {
                        "name": "Accept",
                        "in": "header",
                        "description": "application/json",
                        "required": true,
                        "schema": {
                            "type": "string"
                        }
                    },
                    {
                        "name": "Authorization",
                        "in": "header",
                        "description": "Bearer {token}",
                        "required": true,
                        "schema": {
                            "type": "string"
                        }
                    }
                ],
                "responses": {
                    "200": {
                        "description": "{data:{id:3,...}}"
                    }
                }
            }
        },
        "/api/v1/payment-method": {
            "get": {
                "tags": [
                    "Payment Method"
                ],
                "summary": "Get all cards",
                "parameters": [
                    {
                        "name": "Accept",
                        "in": "header",
                        "description": "application/json",
                        "required": true,
                        "schema": {
                            "type": "string"
                        }
                    },
                    {
                        "name": "Authorization",
                        "in": "header",
                        "description": "Bearer {token}",
                        "required": true,
                        "schema": {
                            "type": "string"
                        }
                    }
                ],
                "responses": {
                    "200": {
                        "description": ""
                    }
                }
            },
            "post": {
                "tags": [
                    "Payment Method"
                ],
                "summary": "Add new payment method card",
                "parameters": [
                    {
                        "name": "Accept",
                        "in": "header",
                        "description": "application/json",
                        "required": true,
                        "schema": {
                            "type": "string"
                        }
                    },
                    {
                        "name": "Authorization",
                        "in": "header",
                        "description": "Bearer {token}",
                        "required": true,
                        "schema": {
                            "type": "string"
                        }
                    }
                ],
                "requestBody": {
                    "content": {
                        "application/x-www-form-urlencoded": {
                            "schema": {
                                "properties": {
                                    "token": {
                                        "type": "string"
                                    }
                                },
                                "type": "object"
                            }
                        }
                    }
                },
                "responses": {
                    "200": {
                        "description": "{data: []}"
                    }
                }
            }
        },
        "/api/v1/payment-method/{id}/set_default": {
            "post": {
                "tags": [
                    "Payment Method"
                ],
                "summary": "Set default payment method",
                "parameters": [
                    {
                        "name": "Accept",
                        "in": "header",
                        "description": "application/json",
                        "required": true,
                        "schema": {
                            "type": "string"
                        }
                    },
                    {
                        "name": "Authorization",
                        "in": "header",
                        "description": "Bearer {token}",
                        "required": true,
                        "schema": {
                            "type": "string"
                        }
                    }
                ],
                "responses": {
                    "200": {
                        "description": ""
                    }
                }
            }
        },
        "/api/v1/payment-method/{id}": {
            "delete": {
                "tags": [
                    "Payment Method"
                ],
                "summary": "Delete payment method",
                "parameters": [
                    {
                        "name": "Accept",
                        "in": "header",
                        "description": "application/json",
                        "required": true,
                        "schema": {
                            "type": "string"
                        }
                    },
                    {
                        "name": "Authorization",
                        "in": "header",
                        "description": "Bearer {token}",
                        "required": true,
                        "schema": {
                            "type": "string"
                        }
                    }
                ],
                "responses": {
                    "200": {
                        "description": ""
                    }
                }
            }
        },
        "/api/v1/settings/onesignal": {
            "post": {
                "tags": [
                    "Settings"
                ],
                "summary": "Update OneSignal player id",
                "parameters": [
                    {
                        "name": "Accept",
                        "in": "header",
                        "description": "application/json",
                        "required": true,
                        "schema": {
                            "type": "string"
                        }
                    },
                    {
                        "name": "Authorization",
                        "in": "header",
                        "description": "Bearer {token}",
                        "required": true,
                        "schema": {
                            "type": "string"
                        }
                    }
                ],
                "requestBody": {
                    "content": {
                        "application/x-www-form-urlencoded": {
                            "schema": {
                                "properties": {
                                    "player_id": {
                                        "type": "string"
                                    }
                                },
                                "type": "object"
                            }
                        }
                    }
                },
                "responses": {
                    "200": {
                        "description": "{data: []}"
                    }
                }
            }
        }
    },
    "tags": [
        {
            "name": "Auth",
            "description": ""
        },
        {
            "name": "Location",
            "description": ""
        },
        {
            "name": "Location",
            "description": ""
        },
        {
            "name": "Order",
            "description": ""
        },
        {
            "name": "Payment Method",
            "description": ""
        },
        {
            "name": "Settings",
            "description": ""
        }
    ]
}